<?xml version="1.0"?>
<robot name="elbow" xmlns:xacro="http://www.ros.org/wiki/xacro">

  <xacro:macro name="elbow" params="lr translateZ upper_limit"> <!--left/right -->
  <link name="${lr}_elbow" />

  <joint name="${lr}_elbow_twist" type="revolute">
    <parent link="upper_${lr}_arm"/>
    <child link="${lr}_elbow"/>
    <limit effort="10" velocity="10" lower="0" upper="${upper_limit}"/>
    <origin xyz="0 0 ${-1 * arm_length}" rpy="0 0 0" />
    <axis xyz="0 0 ${translateZ}" />
  </joint>
  </xacro:macro>

  <!-- Transmission is important to link the joints and the controller -->
  <transmission name="${lr}_elbow_twist_trans">
    <type>transmission_interface/SimpleTransmission</type>
    <joint name="${lr}_elbow_twist" />
    <actuator name="${lr}_elbow_twist_motor">
      <hardwareInterface>EffortJointInterface</hardwareInterface>
      <mechanicalReduction>1</mechanicalReduction>
    </actuator>
  </transmission>

</robot>