<?xml version="1.0"?>
<robot name="wrist" xmlns:xacro="http://www.ros.org/wiki/xacro">

  <xacro:macro name="wrist" params="lr"> <!--left/right -->
  <link name="${lr}_palm">
    <visual>
      <geometry>
        <box size="0.04 0.06 0.02"/>
      </geometry>
      <material name="White" />
      <origin xyz="0 0 -0.01" rpy="0 0 0" />
    </visual>
    <collision>
      <geometry>
        <cylinder length="0.06" radius="0.02"/>
      </geometry>
      <origin xyz="0 0 -0.01" rpy="0 0 0" />
      <inertial>
        <mass value="0.05" />
	<origin xyz="0 0 -0.01" />
        <cylinder_inertia  m="0.5" r="0.02" h="0.06" />
      </inertial>
    </collision>
  </link>

  <gazebo reference="${lr}_palm">
    <material>Gazebo/White</material>
    <turnGravityOff>false</turnGravityOff>
  </gazebo>

  <joint name="${lr}_wrist" type="fixed">
    <parent link="lower_${lr}_arm"/>
    <child link="${lr}_palm"/>
    <origin xyz="0 0 -2" rpy="0 0 0" />
  </joint>
  </xacro:macro>
</robot>